<svg width="26" height="40" viewBox="0 0 26 40" fill="none" xmlns="http://www.w3.org/2000/svg">
<path opacity="0.7" d="M12.7118 27.3604L12.9957 27.6281L25.9917 20.371L12.9957 0L12.7118 0.911476V27.3604Z" fill="white"/>
<path d="M12.9961 27.6282V0L0 20.371L12.9961 27.6282Z" fill="white" fill-opacity="0.21"/>
<path d="M12.8359 39.5586L12.9959 39.9999L25.9998 22.6992L12.996 29.9527L12.836 30.1369L12.8359 39.5586Z" fill="#B7B7BC"/>
<path d="M0 22.6987L12.9961 39.9995V29.9522L0 22.6987Z" fill="#414150"/>
<path d="M12.9962 14.791V27.6283L25.9921 20.3714L12.9962 14.791Z" fill="white"/>
<path opacity="0.7" d="M12.9959 14.7908L0 20.371L12.9959 27.628V14.7908Z" fill="white"/>
</svg>
