<svg width="180" height="180" viewBox="0 0 180 180" fill="none" xmlns="http://www.w3.org/2000/svg">
<g filter="url(#filter0_bd_77_693)">
<rect x="60" y="54" width="60" height="60" rx="30" fill="url(#paint0_linear_77_693)" fill-opacity="0.1" shape-rendering="crispEdges"/>
<rect x="60" y="54" width="60" height="60" rx="30" fill="white" fill-opacity="0.02" shape-rendering="crispEdges"/>
<rect x="60.5" y="54.5" width="59" height="59" rx="29.5" stroke="white" stroke-opacity="0.05" shape-rendering="crispEdges"/>
</g>
<g opacity="0.3">
<path d="M86.5 84.8L92.2 90.4C92.6 90.8 93.2 90.8 93.6 90.4C94 90 94 89.4 93.6 89L88.7 84L93.6 79C94 78.6 94 78 93.6 77.6C93.4 77.4 93.2 77.3 92.9 77.3C92.6 77.3 92.4 77.4 92.2 77.6L86.5 83.2C86.1 83.7 86.1 84.3 86.5 84.8C86.5 84.7 86.5 84.7 86.5 84.8Z" fill="white"/>
</g>
<defs>
<filter id="filter0_bd_77_693" x="0" y="-6" width="180" height="186" filterUnits="userSpaceOnUse" color-interpolation-filters="sRGB">
<feFlood flood-opacity="0" result="BackgroundImageFix"/>
<feGaussianBlur in="BackgroundImage" stdDeviation="30"/>
<feComposite in2="SourceAlpha" operator="in" result="effect1_backgroundBlur_77_693"/>
<feColorMatrix in="SourceAlpha" type="matrix" values="0 0 0 0 0 0 0 0 0 0 0 0 0 0 0 0 0 0 127 0" result="hardAlpha"/>
<feOffset dy="6"/>
<feGaussianBlur stdDeviation="30"/>
<feComposite in2="hardAlpha" operator="out"/>
<feColorMatrix type="matrix" values="0 0 0 0 0 0 0 0 0 0 0 0 0 0 0 0 0 0 0.45 0"/>
<feBlend mode="normal" in2="effect1_backgroundBlur_77_693" result="effect2_dropShadow_77_693"/>
<feBlend mode="normal" in="SourceGraphic" in2="effect2_dropShadow_77_693" result="shape"/>
</filter>
<linearGradient id="paint0_linear_77_693" x1="89.9208" y1="54" x2="89.9209" y2="114" gradientUnits="userSpaceOnUse">
<stop stop-color="#020202"/>
<stop offset="1" stop-color="#4A00E0"/>
</linearGradient>
</defs>
</svg>
