<svg width="32" height="32" viewBox="0 0 32 32" fill="none" xmlns="http://www.w3.org/2000/svg">
<path d="M29.8669 16.0001C29.8669 23.8548 23.4994 30.2223 15.6447 30.2223C7.78999 30.2223 1.42249 23.8548 1.42249 16.0001C1.42249 8.14534 7.78999 1.77783 15.6447 1.77783C23.4994 1.77783 29.8669 8.14534 29.8669 16.0001Z" fill="#0052B5"/>
<path d="M12.0892 9.60005V2.22589C12.6683 2.07683 13.2617 1.96334 13.8669 1.88787C14.4493 1.81524 15.0426 1.77783 15.6447 1.77783C16.2468 1.77783 16.8401 1.81524 17.4225 1.88787C18.0277 1.96334 18.6211 2.07683 19.2003 2.22589V11.5556L25.2447 5.50653C25.8963 6.10295 26.8466 7.29258 27.378 8.00005L22.7558 12.4445H29.4189C29.5679 13.0236 29.6814 13.6171 29.7569 14.2223C29.8295 14.8047 29.8669 15.398 29.8669 16.0001C29.8669 16.6021 29.8295 17.1954 29.7569 17.7778C29.6814 18.3831 29.5679 18.9765 29.4189 19.5556H21.6892L27.0235 24.5334C26.259 25.5512 25.3611 26.4631 24.3558 27.2431L19.2003 22.0445V29.7742C18.6211 29.9233 18.0277 30.0368 17.4225 30.1122C16.8401 30.1849 16.2468 30.2223 15.6447 30.2223C15.0426 30.2223 14.4493 30.1849 13.8669 30.1122C13.2617 30.0368 12.6683 29.9233 12.0891 29.7742L12.0892 20.6223L6.22249 26.6536C5.42686 25.9494 4.71069 25.1574 4.08915 24.2929L9.24471 19.5556H1.87055C1.72149 18.9765 1.60799 18.3831 1.53252 17.7778C1.4599 17.1954 1.42249 16.6021 1.42249 16.0001C1.42249 15.398 1.4599 14.8047 1.53252 14.2223C1.60799 13.6171 1.72149 13.0236 1.87055 12.4445H9.42248L4.26693 7.46533C5.05602 6.41506 5.98714 5.4776 7.03178 4.68146L12.0892 9.60005Z" fill="white"/>
<path d="M12.0892 12.4445L5.59846 5.93305C5.25524 6.27557 4.92944 6.63552 4.62249 7.01147L10.3114 12.4445H12.0892Z" fill="#D90026"/>
<path d="M19.2003 12.4445L25.691 5.93305C26.0342 6.27556 26.36 6.63551 26.6669 7.01146L20.978 12.4445H19.2003Z" fill="#D90026"/>
<path d="M19.2003 19.6777L25.691 26.1891C26.0342 25.8466 26.36 25.4867 26.6669 25.1107L20.978 19.6777H19.2003Z" fill="#D90026"/>
<path d="M12.0892 19.6777L5.59846 26.1891C5.25524 25.8466 4.92944 25.4867 4.62249 25.1107L10.3114 19.6777H12.0892Z" fill="#D90026"/>
<path d="M1.53252 14.2223C1.4599 14.8047 1.42249 15.398 1.42249 16.0001C1.42249 16.6021 1.4599 17.1954 1.53252 17.7778H13.8669V30.1122C14.4493 30.1849 15.0426 30.2223 15.6447 30.2223C16.2468 30.2223 16.8401 30.1849 17.4225 30.1122V17.7778H29.7569C29.8295 17.1954 29.8669 16.6021 29.8669 16.0001C29.8669 15.398 29.8295 14.8047 29.7569 14.2223H17.4225V1.88787C16.7266 1.78319 16.3698 1.77783 15.6447 1.77783C15.0426 1.77783 14.4493 1.81524 13.8669 1.88787V14.2223H1.53252Z" fill="#D90026"/>
</svg>
